…
``` r
year_count <- papers %>% 
  count(year)
```

``` r
year_count
```

    ## # A tibble: 49 x 2
    ##     year     n
    ##  * <dbl> <int>
    ##  1  1973    25
    ##  2  1974    45
    ##  3  1975    47
    ##  4  1976    38
    ##  5  1977    59
    ##  6  1978    68
    ##  7  1979   114
    ##  8  1980   216
    ##  9  1981   232
    ## 10  1982   228
    ## # … with 39 more rows
…
